{
  "requestById": {
    "id": 1,
    "type": "CREATION",
    "stages": [
      {
        "id": 4,
        "job_id": 4,
        "description": "This is an openstack run stage description",
        "type": "OPENSTACK"
      },
      {
        "id": 1,
        "job_id": 1,
        "description": "This is an ansible run stage description",
        "type": "ANSIBLE_RUN"
      },
      {
        "id": 2,
        "job_id": 2,
        "description": "This is an ansible run stage description",
        "type": "ANSIBLE_RUN"
      },
      {
        "id": 3,
        "job_id": 3,
        "description": "This is an ansible run stage description",
        "type": "ANSIBLE_RUN"
      }
    ]
  },

  "requests":
  {
    "page": 1,
    "page_size": 5,
    "page_count": 5,
    "count": 5,
    "total_count": 24,
    "results": [
      {
        "id": 1,
        "type": "CREATION",
        "stages": [
          {
            "id": 4,
            "job_id": 4,
            "description": "This is an openstack run stage description",
            "type": "OPENSTACK"
          },
          {
            "id": 1,
            "job_id": 1,
            "description": "This is an ansible run stage description",
            "type": "ANSIBLE_RUN"
          },
          {
            "id": 2,
            "job_id": 2,
            "description": "This is an ansible run stage description",
            "type": "ANSIBLE_RUN"
          },
          {
            "id": 3,
            "job_id": 3,
            "description": "This is an ansible run stage description",
            "type": "ANSIBLE_RUN"
          }
        ]
      },
      {
        "id": 2,
        "type": "CREATION",
        "stages": [
          {
            "id": 4,
            "job_id": 4,
            "description": "This is an openstack run stage description",
            "type": "OPENSTACK"
          },
          {
            "id": 1,
            "job_id": 1,
            "description": "This is an ansible run stage description",
            "type": "ANSIBLE_RUN"
          },
          {
            "id": 2,
            "job_id": 2,
            "description": "This is an ansible run stage description",
            "type": "ANSIBLE_RUN"
          },
          {
            "id": 3,
            "job_id": 3,
            "description": "This is an ansible run stage description",
            "type": "ANSIBLE_RUN"
          }
        ]
      },
      {
        "id": 3,
        "type": "CREATION",
        "stages": [
          {
            "id": 4,
            "job_id": 4,
            "description": "This is an openstack run stage description",
            "type": "OPENSTACK"
          },
          {
            "id": 1,
            "job_id": 1,
            "description": "This is an ansible run stage description",
            "type": "ANSIBLE_RUN"
          },
          {
            "id": 2,
            "job_id": 2,
            "description": "This is an ansible run stage description",
            "type": "ANSIBLE_RUN"
          },
          {
            "id": 3,
            "job_id": 3,
            "description": "This is an ansible run stage description",
            "type": "ANSIBLE_RUN"
          }
        ]
      },
      {
        "id": 4,
        "type": "CREATION",
        "stages": [
          {
            "id": 4,
            "job_id": 4,
            "description": "This is an openstack run stage description",
            "type": "OPENSTACK"
          },
          {
            "id": 1,
            "job_id": 1,
            "description": "This is an ansible run stage description",
            "type": "ANSIBLE_RUN"
          },
          {
            "id": 2,
            "job_id": 2,
            "description": "This is an ansible run stage description",
            "type": "ANSIBLE_RUN"
          },
          {
            "id": 3,
            "job_id": 3,
            "description": "This is an ansible run stage description",
            "type": "ANSIBLE_RUN"
          }
        ]
      },
      {
        "id": 5,
        "type": "CREATION",
        "stages": [
          {
            "id": 4,
            "job_id": 4,
            "description": "This is an openstack run stage description",
            "type": "OPENSTACK"
          },
          {
            "id": 1,
            "job_id": 1,
            "description": "This is an ansible run stage description",
            "type": "ANSIBLE_RUN"
          },
          {
            "id": 2,
            "job_id": 2,
            "description": "This is an ansible run stage description",
            "type": "ANSIBLE_RUN"
          },
          {
            "id": 3,
            "job_id": 3,
            "description": "This is an ansible run stage description",
            "type": "ANSIBLE_RUN"
          }
        ]
      },
      {
        "id": 6,
        "type": "CREATION",
        "stages": [
          {
            "id": 4,
            "job_id": 4,
            "description": "This is an openstack run stage description",
            "type": "OPENSTACK"
          },
          {
            "id": 1,
            "job_id": 1,
            "description": "This is an ansible run stage description",
            "type": "ANSIBLE_RUN"
          },
          {
            "id": 2,
            "job_id": 2,
            "description": "This is an ansible run stage description",
            "type": "ANSIBLE_RUN"
          },
          {
            "id": 3,
            "job_id": 3,
            "description": "This is an ansible run stage description",
            "type": "ANSIBLE_RUN"
          }
        ]
      }
    ]
  }
}
